saida.vcd
$date
  Sun Jul 17 15:51:45 2022
$end
$version
  GHDL v0
$end
$timescale
  1 fs
$end
$scope module standard $end
$upscope $end
$scope module std_logic_1164 $end
$upscope $end
$scope module numeric_std $end
$upscope $end
$scope module std_logic_arith $end
$upscope $end
$scope module std_logic_signed $end
$upscope $end
$scope module std_logic_unsigned $end
$upscope $end
$scope module textio $end
$upscope $end
$scope module math_real $end
$upscope $end
$scope module fd_mc_tb $end
$var reg 1 ! clk $end
$var reg 1 " rst $end
$var reg 1 # pcwen $end
$var reg 1 $ pcsel $end
$var reg 2 % immsel[1:0] $end
$var reg 1 & regwen $end
$var reg 1 ' breq $end
$var reg 1 ( brlt $end
$var reg 1 ) asel $end
$var reg 1 * bsel $end
$var reg 4 + alusel[3:0] $end
$var reg 1 , memrw $end
$var reg 2 - wbsel[1:0] $end
$var reg 32 . instruction[31:0] $end
$scope module fd $end
$var reg 1 / clk $end
$var reg 1 0 rst $end
$var reg 1 1 pcwen $end
$var reg 1 2 pcsel $end
$var reg 2 3 immsel[1:0] $end
$var reg 1 4 regwen $end
$var reg 1 5 breq $end
$var reg 1 6 brlt $end
$var reg 1 7 asel $end
$var reg 1 8 bsel $end
$var reg 4 9 alusel[3:0] $end
$var reg 1 : memrw $end
$var reg 2 ; wbsel[1:0] $end
$var reg 32 < instruction[31:0] $end
$var reg 32 = mux_pc[31:0] $end
$var reg 32 > pc[31:0] $end
$var reg 32 ? add[31:0] $end
$var reg 32 @ dout_i[31:0] $end
$var reg 32 A immed[31:0] $end
$var reg 32 B dout_r_a[31:0] $end
$var reg 32 C dout_r_b[31:0] $end
$var reg 32 D mux_a[31:0] $end
$var reg 32 E mux_b[31:0] $end
$var reg 32 F alu[31:0] $end
$var reg 32 G dout_d[31:0] $end
$var reg 32 H mux_wb[31:0] $end
$scope module multiplexer_pc $end
$var reg 1 I sel $end
$var reg 32 J i0[31:0] $end
$var reg 32 K i1[31:0] $end
$var reg 32 L o[31:0] $end
$upscope $end
$scope module program_counter $end
$var reg 1 M clk $end
$var reg 1 N ce $end
$var reg 1 O rst $end
$var reg 32 P din[31:0] $end
$var reg 32 Q dout[31:0] $end
$var reg 32 R qi[31:0] $end
$upscope $end
$scope module add4 $end
$var reg 1 S cin $end
$var reg 32 T a[31:0] $end
$var reg 32 U b[31:0] $end
$var reg 32 V sum[31:0] $end
$upscope $end
$scope module instruction_memory $end
$var reg 1 W clock $end
$var reg 1 X enable $end
$var reg 1 Y rw $end
$var reg 12 Z ender[11:0] $end
$var reg 1 [ pronto $end
$var reg 32 \ dado_in[31:0] $end
$var reg 32 ] dado_out[31:0] $end
$comment mram is not handled $end
$upscope $end
$scope module register_file $end
$var reg 1 ^ clk $end
$var reg 1 _ we $end
$var reg 32 ` din[31:0] $end
$var reg 5 a addrin[4:0] $end
$var reg 5 b addra[4:0] $end
$var reg 5 c addrb[4:0] $end
$var reg 32 d douta[31:0] $end
$var reg 32 e doutb[31:0] $end
$comment ram is not handled $end
$var reg 5 f enda_reg[4:0] $end
$var reg 5 g endb_reg[4:0] $end
$upscope $end
$scope module immediate_generator $end
$var reg 32 h instruction[31:0] $end
$var reg 2 i immsel[1:0] $end
$var reg 32 j immed[31:0] $end
$upscope $end
$scope module branch_comparator $end
$var reg 32 k a[31:0] $end
$var reg 32 l b[31:0] $end
$var reg 1 m eq $end
$var reg 1 n lt $end
$var reg 1 o gt $end
$var reg 1 p le $end
$var reg 1 q ge $end
$upscope $end
$scope module multiplexer_a $end
$var reg 1 r sel $end
$var reg 32 s i0[31:0] $end
$var reg 32 t i1[31:0] $end
$var reg 32 u o[31:0] $end
$upscope $end
$scope module multiplexer_b $end
$var reg 1 v sel $end
$var reg 32 w i0[31:0] $end
$var reg 32 x i1[31:0] $end
$var reg 32 y o[31:0] $end
$upscope $end
$scope module multifuncional_alu $end
$var reg 1 z cin $end
$var reg 32 { a[31:0] $end
$var reg 32 | b[31:0] $end
$var reg 4 } aluope[3:0] $end
$var reg 1 !" cout $end
$var reg 1 "" zero $end
$var reg 1 #" negative $end
$var reg 32 $" result[31:0] $end
$var reg 32 %" qi[31:0] $end
$upscope $end
$scope module data_memory $end
$var reg 1 &" clock $end
$var reg 1 '" enable $end
$var reg 1 (" rw $end
$var reg 12 )" ender[11:0] $end
$var reg 1 *" pronto $end
$var reg 32 +" dado_in[31:0] $end
$var reg 32 ," dado_out[31:0] $end
$comment mram is not handled $end
$upscope $end
$scope module multiplexer_wb $end
$var reg 32 -" i0[31:0] $end
$var reg 32 ." i1[31:0] $end
$var reg 32 /" i2[31:0] $end
$var reg 32 0" i3[31:0] $end
$var reg 2 1" sel[1:0] $end
$var reg 32 2" o[31:0] $end
$upscope $end
$upscope $end
$upscope $end
$enddefinitions $end
#0
1!
U"
U#
U$
bUU %
U&
1'
U(
U)
U*
bUUUU +
U,
bUU -
bUUUUUUUUUUUUUUUUUUUUUUUUUUUUUUUU .
1/
U0
U1
U2
bUU 3
U4
15
U6
U7
U8
bUUUU 9
U:
bUU ;
bUUUUUUUUUUUUUUUUUUUUUUUUUUUUUUUU <
bUUUUUUUUUUUUUUUUUUUUUUUUUUUUUUUU =
bUUUUUUUUUUUUUUUUUUUUUUUUUUUUUUUU >
bUUUUUUUUUUUUUUUUUUUUUUUUUUUUUUUU ?
bUUUUUUUUUUUUUUUUUUUUUUUUUUUUUUUU @
bUUUUUUUUUUUUUUUUUUUUUUUUUUUUUUUU A
bUUUUUUUUUUUUUUUUUUUUUUUUUUUUUUUU B
bUUUUUUUUUUUUUUUUUUUUUUUUUUUUUUUU C
bUUUUUUUUUUUUUUUUUUUUUUUUUUUUUUUU D
bUUUUUUUUUUUUUUUUUUUUUUUUUUUUUUUU E
bXXXXXXXXXXXXXXXXXXXXXXXXXXXXXXXX F
bXXXXXXXXXXXXXXXXXXXXXXXXXXXXXXXX G
bUUUUUUUUUUUUUUUUUUUUUUUUUUUUUUUU H
UI
bUUUUUUUUUUUUUUUUUUUUUUUUUUUUUUUU J
bXXXXXXXXXXXXXXXXXXXXXXXXXXXXXXXX K
bUUUUUUUUUUUUUUUUUUUUUUUUUUUUUUUU L
1M
UN
UO
bUUUUUUUUUUUUUUUUUUUUUUUUUUUUUUUU P
bUUUUUUUUUUUUUUUUUUUUUUUUUUUUUUUU Q
bUUUUUUUUUUUUUUUUUUUUUUUUUUUUUUUU R
0S
bUUUUUUUUUUUUUUUUUUUUUUUUUUUUUUUU T
b00000000000000000000000000000100 U
bUUUUUUUUUUUUUUUUUUUUUUUUUUUUUUUU V
1W
1X
0Y
bUUUUUUUUUUUU Z
U[
b00000000000000000000000000000000 \
bUUUUUUUUUUUUUUUUUUUUUUUUUUUUUUUU ]
1^
U_
bUUUUUUUUUUUUUUUUUUUUUUUUUUUUUUUU `
bUUUUU a
bUUUUU b
bUUUUU c
bUUUUUUUUUUUUUUUUUUUUUUUUUUUUUUUU d
bUUUUUUUUUUUUUUUUUUUUUUUUUUUUUUUU e
bUUUUU f
bUUUUU g
bUUUUUUUUUUUUUUUUUUUUUUUUUUUUUUUU h
bUU i
bUUUUUUUUUUUUUUUUUUUUUUUUUUUUUUUU j
bUUUUUUUUUUUUUUUUUUUUUUUUUUUUUUUU k
bUUUUUUUUUUUUUUUUUUUUUUUUUUUUUUUU l
1m
Un
Uo
Up
Uq
Ur
bUUUUUUUUUUUUUUUUUUUUUUUUUUUUUUUU s
bUUUUUUUUUUUUUUUUUUUUUUUUUUUUUUUU t
bUUUUUUUUUUUUUUUUUUUUUUUUUUUUUUUU u
Uv
bUUUUUUUUUUUUUUUUUUUUUUUUUUUUUUUU w
bUUUUUUUUUUUUUUUUUUUUUUUUUUUUUUUU x
bUUUUUUUUUUUUUUUUUUUUUUUUUUUUUUUU y
0z
bUUUUUUUUUUUUUUUUUUUUUUUUUUUUUUUU {
bUUUUUUUUUUUUUUUUUUUUUUUUUUUUUUUU |
bUUUU }
X!"
U""
U#"
bXXXXXXXXXXXXXXXXXXXXXXXXXXXXXXXX $"
bXXXXXXXXXXXXXXXXXXXXXXXXXXXXXXXX %"
1&"
1'"
U("
bXXXXXXXXXXXX )"
U*"
bUUUUUUUUUUUUUUUUUUUUUUUUUUUUUUUU +"
bXXXXXXXXXXXXXXXXXXXXXXXXXXXXXXXX ,"
bXXXXXXXXXXXXXXXXXXXXXXXXXXXXXXXX -"
bXXXXXXXXXXXXXXXXXXXXXXXXXXXXXXXX ."
bUUUUUUUUUUUUUUUUUUUUUUUUUUUUUUUU /"
b00000000000000000000000000000000 0"
bUU 1"
bUUUUUUUUUUUUUUUUUUUUUUUUUUUUUUUU 2"
#500000
bXXXXXXXXXXXXXXXXXXXXXXXXXXXXXXXX =
bXXXXXXXXXXXXXXXXXXXXXXXXXXXXXXXX A
bXXXXXXXXXXXXXXXXXXXXXXXXXXXXXXXX D
bXXXXXXXXXXXXXXXXXXXXXXXXXXXXXXXX E
bXXXXXXXXXXXXXXXXXXXXXXXXXXXXXXXX H
bXXXXXXXXXXXXXXXXXXXXXXXXXXXXXXXX L
bXXXXXXXXXXXXXXXXXXXXXXXXXXXXXXXX P
bXXXXXXXXXXXXXXXXXXXXXXXXXXXXXXXX `
bXXXXXXXXXXXXXXXXXXXXXXXXXXXXXXXX j
bXXXXXXXXXXXXXXXXXXXXXXXXXXXXXXXX u
bXXXXXXXXXXXXXXXXXXXXXXXXXXXXXXXX x
bXXXXXXXXXXXXXXXXXXXXXXXXXXXXXXXX y
bXXXXXXXXXXXXXXXXXXXXXXXXXXXXXXXX {
bXXXXXXXXXXXXXXXXXXXXXXXXXXXXXXXX |
bXXXXXXXXXXXXXXXXXXXXXXXXXXXXXXXX 2"
#1000000
0"
1#
0$
b00 %
1&
1)
0*
b0000 +
0,
b00 -
00
11
02
b00 3
14
17
08
b0000 9
0:
b00 ;
bXXXXXXXXXXXXXXXXXXXXXXXXXXXXXXXX ?
0I
bXXXXXXXXXXXXXXXXXXXXXXXXXXXXXXXX J
1N
0O
bUUUUUUUUUUUUUUUUUUUUUUUUUUUUUUUU Q
bXXXXXXXXXXXXXXXXXXXXXXXXXXXXXXXX V
1_
b00 i
1r
0v
bXXXXXXXXXXXXXXXXXXXXXXXXXXXXXXXX y
b0000 }
0""
X#"
0("
bXXXXXXXXXXXXXXXXXXXXXXXXXXXXXXXX /"
b00 1"
#1250000
0(
06
0n
0o
0p
0q
#1500000
bUUUUUUUUUUUUUUUUUUUUUUUUUUUUUUUU A
bUUUUUUUUUUUUUUUUUUUUUUUUUUUUUUUU D
bUUUUUUUUUUUUUUUUUUUUUUUUUUUUUUUU E
bXXXXXXXXXXXXXXXXXXXXXXXXXXXXXXXX L
bUUUUUUUUUUUUUUUUUUUUUUUUUUUUUUUU j
bUUUUUUUUUUUUUUUUUUUUUUUUUUUUUUUU u
bUUUUUUUUUUUUUUUUUUUUUUUUUUUUUUUU x
bUUUUUUUUUUUUUUUUUUUUUUUUUUUUUUUU y
bUUUUUUUUUUUUUUUUUUUUUUUUUUUUUUUU {
bUUUUUUUUUUUUUUUUUUUUUUUUUUUUUUUU |
bXXXXXXXXXXXXXXXXXXXXXXXXXXXXXXXX 2"
#2000000
bUUUUUUUUUUUUUUUUUUUUUUUUUUUUUUUU y
#2500000
#5000000
0!
b00000000010000000010000000000011 .
0/
b00000000010000000010000000000011 <
b00000000010000000010000000000011 @
0M
0W
1[
b00000000010000000010000000000011 ]
0^
b00000 a
b00000 b
b00100 c
bUUUUUUUUUUUUUUUUUUUUUUUUUUUUUUUU d
bUUUUUUUUUUUUUUUUUUUUUUUUUUUUUUUU e
b00000 f
b00100 g
b00000000010000000010000000000011 h
0&"
#5500000
b00000000000000000000000000000100 A
b00000000000000000000000000000100 j
b00000000000000000000000000000100 x
#6000000
bUUUUUUUUUUUUUUUUUUUUUUUUUUUUUUUU y
#10000000
1!
1/
b00000000000000000000000000001010 G
1M
bXXXXXXXXXXXXXXXXXXXXXXXXXXXXXXXX R
1W
1[
b00000000010000000010000000000011 ]
1^
bUUUUUUUUUUUUUUUUUUUUUUUUUUUUUUUU d
bUUUUUUUUUUUUUUUUUUUUUUUUUUUUUUUU e
1&"
1*"
b00000000000000000000000000001010 ,"
b00000000000000000000000000001010 -"
#10500000
b00000000000000000000000000001010 H
b00000000000000000000000000001010 `
b00000000000000000000000000001010 2"
#11000000
bXXXXXXXXXXXXXXXXXXXXXXXXXXXXXXXX .
bXXXXXXXXXXXXXXXXXXXXXXXXXXXXXXXX <
bXXXXXXXXXXXXXXXXXXXXXXXXXXXXXXXX >
bXXXXXXXXXXXXXXXXXXXXXXXXXXXXXXXX @
bXXXXXXXXXXXXXXXXXXXXXXXXXXXXXXXX Q
bXXXXXXXXXXXXXXXXXXXXXXXXXXXXXXXX T
bXXXXXXXXXXXX Z
bXXXXXXXXXXXXXXXXXXXXXXXXXXXXXXXX ]
bXXXXX a
bXXXXX b
bXXXXX c
bXXXXXXXXXXXXXXXXXXXXXXXXXXXXXXXX h
bXXXXXXXXXXXXXXXXXXXXXXXXXXXXXXXX t
#11500000
bXXXXXXXXXXXXXXXXXXXXXXXXXXXXXXXX A
bXXXXXXXXXXXXXXXXXXXXXXXXXXXXXXXX D
bXXXXXXXXXXXXXXXXXXXXXXXXXXXXXXXX j
bXXXXXXXXXXXXXXXXXXXXXXXXXXXXXXXX u
bXXXXXXXXXXXXXXXXXXXXXXXXXXXXXXXX x
bXXXXXXXXXXXXXXXXXXXXXXXXXXXXXXXX {
#12000000
bXXXXXXXXXXXXXXXXXXXXXXXXXXXXXXXX V
bUUUUUUUUUUUUUUUUUUUUUUUUUUUUUUUU y
#12500000
#15000000
0!
0/
0M
0W
1[
0^
bXXXXX f
bXXXXX g
0&"
1*"
b00000000000000000000000000001010 ,"
#20000000
1!
b00000000010000000010000000000011 .
1/
b00000000010000000010000000000011 <
b00000000010000000010000000000011 @
bXXXXXXXXXXXXXXXXXXXXXXXXXXXXXXXX B
bXXXXXXXXXXXXXXXXXXXXXXXXXXXXXXXX C
bXXXXXXXXXXXXXXXXXXXXXXXXXXXXXXXX G
1M
1W
1[
b00000000010000000010000000000011 ]
1^
b00000 a
b00000 b
b00100 c
bXXXXXXXXXXXXXXXXXXXXXXXXXXXXXXXX d
bXXXXXXXXXXXXXXXXXXXXXXXXXXXXXXXX e
b00000 f
b00100 g
b00000000010000000010000000000011 h
bXXXXXXXXXXXXXXXXXXXXXXXXXXXXXXXX k
bXXXXXXXXXXXXXXXXXXXXXXXXXXXXXXXX l
bXXXXXXXXXXXXXXXXXXXXXXXXXXXXXXXX s
bXXXXXXXXXXXXXXXXXXXXXXXXXXXXXXXX w
1&"
1*"
bXXXXXXXXXXXXXXXXXXXXXXXXXXXXXXXX +"
bXXXXXXXXXXXXXXXXXXXXXXXXXXXXXXXX ,"
bXXXXXXXXXXXXXXXXXXXXXXXXXXXXXXXX -"
#20500000
b00000000000000000000000000000100 A
bXXXXXXXXXXXXXXXXXXXXXXXXXXXXXXXX E
bXXXXXXXXXXXXXXXXXXXXXXXXXXXXXXXX H
bXXXXXXXXXXXXXXXXXXXXXXXXXXXXXXXX `
b00000000000000000000000000000100 j
bXXXXXXXXXXXXXXXXXXXXXXXXXXXXXXXX u
b00000000000000000000000000000100 x
bXXXXXXXXXXXXXXXXXXXXXXXXXXXXXXXX y
bXXXXXXXXXXXXXXXXXXXXXXXXXXXXXXXX |
bXXXXXXXXXXXXXXXXXXXXXXXXXXXXXXXX 2"
#21000000
bXXXXXXXXXXXXXXXXXXXXXXXXXXXXXXXX y
#21250000
06
0n
0o
0p
0q
#21500000
#25000000
0!
0/
bUUUUUUUUUUUUUUUUUUUUUUUUUUUUUUUU C
0M
0W
1[
b00000000010000000010000000000011 ]
0^
bXXXXXXXXXXXXXXXXXXXXXXXXXXXXXXXX d
bUUUUUUUUUUUUUUUUUUUUUUUUUUUUUUUU e
bUUUUUUUUUUUUUUUUUUUUUUUUUUUUUUUU l
bUUUUUUUUUUUUUUUUUUUUUUUUUUUUUUUU w
0&"
bUUUUUUUUUUUUUUUUUUUUUUUUUUUUUUUU +"
#25500000
bUUUUUUUUUUUUUUUUUUUUUUUUUUUUUUUU E
bUUUUUUUUUUUUUUUUUUUUUUUUUUUUUUUU y
bUUUUUUUUUUUUUUUUUUUUUUUUUUUUUUUU |
#26250000
06
0n
0o
0p
0q
#26500000
#30000000
1!
1/
b00000000000000000000000000001010 B
1M
1W
1[
b00000000010000000010000000000011 ]
1^
b00000000000000000000000000001010 d
bUUUUUUUUUUUUUUUUUUUUUUUUUUUUUUUU e
b00000000000000000000000000001010 k
b00000000000000000000000000001010 s
1&"
#30500000
bXXXXXXXXXXXXXXXXXXXXXXXXXXXXXXXX u
#31000000
#31250000
0'
05
06
0m
0n
0o
0p
0q
#35000000
0!
0/
b00000000000000000000000000001010 G
0M
0W
1[
b00000000010000000010000000000011 ]
0^
0&"
1*"
b00000000000000000000000000001010 ,"
b00000000000000000000000000001010 -"
#35500000
b00000000000000000000000000001010 H
b00000000000000000000000000001010 `
b00000000000000000000000000001010 2"
#40000000
1!
1'
1/
15
bXXXXXXXXXXXXXXXXXXXXXXXXXXXXXXXX B
1M
1W
1[
b00000000010000000010000000000011 ]
1^
bXXXXXXXXXXXXXXXXXXXXXXXXXXXXXXXX d
bUUUUUUUUUUUUUUUUUUUUUUUUUUUUUUUU e
bXXXXXXXXXXXXXXXXXXXXXXXXXXXXXXXX k
1m
bXXXXXXXXXXXXXXXXXXXXXXXXXXXXXXXX s
1&"
1*"
b00000000000000000000000000001010 ,"
#40500000
bXXXXXXXXXXXXXXXXXXXXXXXXXXXXXXXX u
#41250000
06
0n
0o
0p
0q
#45000000
0!
0/
0M
0W
1[
b00000000010000000010000000000011 ]
0^
0&"
1*"
b00000000000000000000000000001010 ,"
#50000000
1!
1/
b00000000000000000000000000001010 B
1M
1W
1[
b00000000010000000010000000000011 ]
1^
b00000000000000000000000000001010 d
bUUUUUUUUUUUUUUUUUUUUUUUUUUUUUUUU e
b00000000000000000000000000001010 k
b00000000000000000000000000001010 s
1&"
1*"
b00000000000000000000000000001010 ,"
#50500000
bXXXXXXXXXXXXXXXXXXXXXXXXXXXXXXXX u
#51250000
0'
05
06
0m
0n
0o
0p
0q
#55000000
0!
0/
0M
0W
1[
b00000000010000000010000000000011 ]
0^
0&"
1*"
b00000000000000000000000000001010 ,"
#60000000
1!
1/
1M
1W
1[
b00000000010000000010000000000011 ]
1^
1&"
1*"
b00000000000000000000000000001010 ,"
#65000000
0!
0/
0M
0W
1[
b00000000010000000010000000000011 ]
0^
0&"
1*"
b00000000000000000000000000001010 ,"
#70000000
1!
1/
1M
1W
1[
b00000000010000000010000000000011 ]
1^
1&"
1*"
b00000000000000000000000000001010 ,"
#75000000
0!
0/
0M
0W
1[
b00000000010000000010000000000011 ]
0^
0&"
1*"
b00000000000000000000000000001010 ,"
#80000000
1!
1/
1M
1W
1[
b00000000010000000010000000000011 ]
1^
1&"
1*"
b00000000000000000000000000001010 ,"
#85000000
0!
0/
0M
0W
1[
b00000000010000000010000000000011 ]
0^
0&"
1*"
b00000000000000000000000000001010 ,"
#90000000
1!
1/
1M
1W
1[
b00000000010000000010000000000011 ]
1^
1&"
1*"
b00000000000000000000000000001010 ,"
#95000000
0!
0/
0M
0W
1[
b00000000010000000010000000000011 ]
0^
0&"
1*"
b00000000000000000000000000001010 ,"
#100000000
1!
1/
1M
1W
1[
b00000000010000000010000000000011 ]
1^
1&"
1*"
b00000000000000000000000000001010 ,"
#105000000
0!
0/
0M
0W
1[
b00000000010000000010000000000011 ]
0^
0&"
1*"
b00000000000000000000000000001010 ,"
#110000000
1!
1/
1M
1W
1[
b00000000010000000010000000000011 ]
1^
1&"
1*"
b00000000000000000000000000001010 ,"
#115000000
0!
0/
0M
0W
1[
b00000000010000000010000000000011 ]
0^
0&"
1*"
b00000000000000000000000000001010 ,"
#120000000
1!
1/
1M
1W
1[
b00000000010000000010000000000011 ]
1^
1&"
1*"
b00000000000000000000000000001010 ,"
#125000000
0!
0/
0M
0W
1[
b00000000010000000010000000000011 ]
0^
0&"
1*"
b00000000000000000000000000001010 ,"
#130000000
1!
1/
1M
1W
1[
b00000000010000000010000000000011 ]
1^
1&"
1*"
b00000000000000000000000000001010 ,"
#135000000
0!
0/
0M
0W
1[
b00000000010000000010000000000011 ]
0^
0&"
1*"
b00000000000000000000000000001010 ,"
#140000000
1!
1/
1M
1W
1[
b00000000010000000010000000000011 ]
1^
1&"
1*"
b00000000000000000000000000001010 ,"
#145000000
0!
0/
0M
0W
1[
b00000000010000000010000000000011 ]
0^
0&"
1*"
b00000000000000000000000000001010 ,"
#150000000
1!
1/
1M
1W
1[
b00000000010000000010000000000011 ]
1^
1&"
1*"
b00000000000000000000000000001010 ,"
#155000000
0!
0/
0M
0W
1[
b00000000010000000010000000000011 ]
0^
0&"
1*"
b00000000000000000000000000001010 ,"
#160000000
1!
1/
1M
1W
1[
b00000000010000000010000000000011 ]
1^
1&"
1*"
b00000000000000000000000000001010 ,"
#165000000
0!
0/
0M
0W
1[
b00000000010000000010000000000011 ]
0^
0&"
1*"
b00000000000000000000000000001010 ,"
#170000000
1!
1/
1M
1W
1[
b00000000010000000010000000000011 ]
1^
1&"
1*"
b00000000000000000000000000001010 ,"
#175000000
0!
0/
0M
0W
1[
b00000000010000000010000000000011 ]
0^
0&"
1*"
b00000000000000000000000000001010 ,"
#180000000
1!
1/
1M
1W
1[
b00000000010000000010000000000011 ]
1^
1&"
1*"
b00000000000000000000000000001010 ,"
#185000000
0!
0/
0M
0W
1[
b00000000010000000010000000000011 ]
0^
0&"
1*"
b00000000000000000000000000001010 ,"
#190000000
1!
1/
1M
1W
1[
b00000000010000000010000000000011 ]
1^
1&"
1*"
b00000000000000000000000000001010 ,"
#195000000
0!
0/
0M
0W
1[
b00000000010000000010000000000011 ]
0^
0&"
1*"
b00000000000000000000000000001010 ,"
#200000000
1!
1/
1M
1W
1[
b00000000010000000010000000000011 ]
1^
1&"
1*"
b00000000000000000000000000001010 ,"
#205000000
0!
0/
0M
0W
1[
b00000000010000000010000000000011 ]
0^
0&"
1*"
b00000000000000000000000000001010 ,"
#210000000
1!
1/
1M
1W
1[
b00000000010000000010000000000011 ]
1^
1&"
1*"
b00000000000000000000000000001010 ,"
#215000000
0!
0/
0M
0W
1[
b00000000010000000010000000000011 ]
0^
0&"
1*"
b00000000000000000000000000001010 ,"
#220000000
1!
1/
1M
1W
1[
b00000000010000000010000000000011 ]
1^
1&"
1*"
b00000000000000000000000000001010 ,"
#225000000
0!
0/
0M
0W
1[
b00000000010000000010000000000011 ]
0^
0&"
1*"
b00000000000000000000000000001010 ,"
#230000000
1!
1/
1M
1W
1[
b00000000010000000010000000000011 ]
1^
1&"
1*"
b000000000